{
	"required_conf_log": {
		"environment": "",
		"system": "",
		"subsystem": "",
		"app": "",
		"subApp": "",
		"passpr": "",
		"subapplicationVersion": ""
	},
	"required_conf_header": {
		"xIBMClientId": ""
	} 
} 
